{
    "continue_text": "Choose your favorite version to continue",
    "back_btn_text": "Previous list of the versions",
    "back_start_text": "Back to start of comics",
    "versions": {
        "1": {
            "button": {
                "number": "1 Version",
                "text": "Version 1 title"
            },
            "videoImage": "images/comics_img1.jpg",
            "content": {
                "video_mp4": "type='video/mp4' src='video/ava_1.mp4'"
            },
            "versions": {
                "1.1": {
                    "button": {
                        "number": "1.1 Version",
                        "text": "Version 1.1 title"
                    },
                    "content": {
                        "video_mp4": "type='video/mp4' src='video/ava_2.mp4'"
                    },
                    "versions": {
                        "1.1.1": {
                            "button": {
                                "number": "1.1.1 Version",
                                "text": "version 1.1.1 title"
                            },
                            "content": {
                                "video_mp4": "type='video/mp4' src='video/ava_4.mp4'"
                            }
                        }
                    }
                },
                "1.2": {
                    "button": {
                        "number": "1.2 Version",
                        "text": "Afraid of lion"
                    },
                    "content": {
                        "video_mp4": "type='video/mp4' src='video/ava_3.mp4'"
                    }
                }
            }
        },
        "2": {
            "button": {
                "number": "2 Version",
                "text": "Version 2 title"
            },
            "content": {
                "video_mp4": "type='video/mp4' src='video/inna_1.mp4'"
            },
            "versions": {
                "2.1": {
                    "button": {
                        "number": "2.1 Version",
                        "text": "Version 2.1 title"
                    },
                    "content": {
                        "video_mp4": "type='video/mp4' src='video/inna_2.mp4'"
                    }
                },
                "2.2": {
                    "button": {
                        "number": "2.2 Version",
                        "text": "Afraid of lion"
                    },
                    "content": {
                        "video_mp4": "type='video/mp4' src='video/inna_3.mp4'"
                    }
                }
            }
        },
        "3": {
            "button": {
                "number": "3 Version",
                "text": "Version 3 title"
            },
            "content": {
                "video_mp4": "type='video/mp4' src='video/lipa_1.mp4'"
            },
            "versions": {
                "3.1": {
                    "button": {
                        "number": "3.1 Version",
                        "text": "Version 3.1 title"
                    },
                    "content": {
                        "video_mp4": "type='video/mp4' src='video/lipa_3.webm'"
                    }
                }
            }
        },
        "4": {
            "button": {
                "number": "4 Version",
                "text": "Version 4 title"
            },
            "content": {
                "video_mp4": "type='video/mp4' src='video/lipa_2.webm'"
            }
        }
    }
    
}