<svg width="158" height="174" viewBox="0 0 158 174" fill="none" xmlns="http://www.w3.org/2000/svg">
<path d="M118.343 24.7585H135.291C140.053 24.669 144.655 26.4827 148.087 29.8011C151.518 33.1195 153.498 37.671 153.591 42.4552L153.819 151.811C153.787 154.181 153.29 156.521 152.356 158.697C151.423 160.874 150.072 162.844 148.38 164.495C146.688 166.147 144.689 167.447 142.496 168.321C140.304 169.196 137.962 169.627 135.603 169.591L23.0608 169.863C18.299 169.953 13.6967 168.139 10.2653 164.82C6.83385 161.502 4.85416 156.951 4.76128 152.166L4.51172 42.7895C4.59382 38.0089 6.55592 33.4553 9.96925 30.1237C13.3826 26.7921 17.9696 24.9533 22.7281 25.0092H39.1353" stroke="#A64AC9" stroke-width="4" stroke-miterlimit="10"/>
<path d="M2.70312 141.803L44.7089 105.47C45.0016 105.21 45.3847 105.078 45.7744 105.101C46.1641 105.125 46.5287 105.302 46.7884 105.595L72.3454 133.947L115.017 85.4957C115.183 85.2989 115.393 85.1431 115.629 85.0402C115.865 84.9373 116.121 84.8901 116.378 84.9022C116.635 84.9144 116.886 84.9854 117.111 85.11C117.337 85.2347 117.531 85.4095 117.678 85.6211L151.782 132.569L155.213 131.336" stroke="#A64AC9" stroke-width="4" stroke-miterlimit="10"/>
<path d="M71.8881 100.602C74.0128 100.602 75.7351 98.8711 75.7351 96.7364C75.7351 94.6016 74.0128 92.8711 71.8881 92.8711C69.7634 92.8711 68.041 94.6016 68.041 96.7364C68.041 98.8711 69.7634 100.602 71.8881 100.602Z" stroke="#A64AC9" stroke-width="5" stroke-miterlimit="10"/>
<path d="M75.1328 0V42.5807" stroke="#A64AC9" stroke-width="4.28" stroke-miterlimit="10"/>
<path d="M89.0846 41.7239L77.7098 59.6504C77.4546 60.0427 77.1061 60.3649 76.6958 60.5879C76.2856 60.8109 75.8264 60.9277 75.36 60.9277C74.8935 60.9277 74.4344 60.8109 74.0241 60.5879C73.6138 60.3649 73.2654 60.0427 73.0101 59.6504L61.2818 41.7239C61.0034 41.3016 60.8442 40.8113 60.8213 40.3053C60.7983 39.7992 60.9124 39.2964 61.1514 38.8504C61.3905 38.4044 61.7454 38.0319 62.1786 37.7726C62.6117 37.5134 63.1067 37.377 63.6108 37.3781H86.7348C87.2407 37.3732 87.7384 37.5068 88.1745 37.7645C88.6106 38.0223 88.9686 38.3944 89.2101 38.8411C89.4517 39.2878 89.5676 39.7922 89.5455 40.3C89.5234 40.8079 89.3641 41.3001 89.0846 41.7239Z" fill="#A64AC9"/>
</svg>
